{
    "type": "application",
    "source-directories": [
        "src"
    ],
    "elm-version": "0.19.0",
    "dependencies": {
        "direct": {
            "ConcatDK/elm-todoist": "1.1.0",
            "elm/browser": "1.0.1",
            "elm/core": "1.0.2",
            "elm/html": "1.0.0",
            "elm/time": "1.0.0",
            "surprisetalk/elm-bulma": "6.1.4"
        },
        "indirect": {
            "NoRedInk/elm-json-decode-pipeline": "1.0.0",
            "elm/bytes": "1.0.7",
            "elm/file": "1.0.1",
            "elm/http": "2.0.0",
            "elm/json": "1.1.2",
            "elm/parser": "1.1.0",
            "elm/url": "1.0.0",
            "elm/virtual-dom": "1.0.2",
            "elm-community/maybe-extra": "5.0.0",
            "rtfeldman/elm-iso8601-date-strings": "1.1.2"
        }
    },
    "test-dependencies": {
        "direct": {},
        "indirect": {}
    }
}